…
``` r
boot_strap_df = 
  tibble(strap_number = 1:1000,
         strap_sample = rerun(1000, boot_sample(sim_df_nonconst)))
```

``` r
boot_strap_df %>% 
  filter(strap_number %in% 1:2) %>% 
  mutate(strap_sample = map(strap_sample, ~arrange(.x, x))) %>% 
  pull(strap_sample)
```

    ## [[1]]
    ## # A tibble: 250 × 3
    ##         x   error       y
    ##     <dbl>   <dbl>   <dbl>
    ##  1 -1.89   1.62   -2.04  
    ##  2 -1.89   1.62   -2.04  
    ##  3 -1.21  -0.781  -2.43  
    ##  4 -1.21  -0.781  -2.43  
    ##  5 -1.00   0.832  -0.169 
    ##  6 -0.989 -1.97   -2.93  
    ##  7 -0.914 -0.908  -1.65  
    ##  8 -0.606 -0.106   0.0774
    ##  9 -0.536  0.0227  0.413 
    ## 10 -0.524 -0.536  -0.106 
    ## # … with 240 more rows
    ## 
    ## [[2]]
    ## # A tibble: 250 × 3
    ##         x  error       y
    ##     <dbl>  <dbl>   <dbl>
    ##  1 -1.29   1.40  -0.454 
    ##  2 -0.989 -1.97  -2.93  
    ##  3 -0.914 -0.908 -1.65  
    ##  4 -0.914 -0.908 -1.65  
    ##  5 -0.805  0.292 -0.123 
    ##  6 -0.805  0.292 -0.123 
    ##  7 -0.665 -0.544 -0.539 
    ##  8 -0.641 -0.416 -0.338 
    ##  9 -0.606 -0.106  0.0774
    ## 10 -0.606 -0.106  0.0774
    ## # … with 240 more rows
…
