…
``` r
new_nyc_airbnb %>% 
  modelr::add_predictions(logistic_fit) %>% 
  mutate (pred = boot::inv.logit(pred))
```

    ## # A tibble: 40,492 × 7
    ##    price stars boro  neighbourhood room_type       expensive_apt          pred
    ##    <dbl> <dbl> <fct> <chr>         <fct>                   <dbl>         <dbl>
    ##  1    99   5   Bronx City Island   Private room                0  0.0000000343
    ##  2   200  NA   Bronx City Island   Private room                0 NA           
    ##  3   300  NA   Bronx City Island   Entire home/apt             0 NA           
    ##  4   125   5   Bronx City Island   Entire home/apt             0  0.0000000343
    ##  5    69   5   Bronx City Island   Private room                0  0.0000000343
    ##  6   125   5   Bronx City Island   Entire home/apt             0  0.0000000343
    ##  7    85   5   Bronx City Island   Entire home/apt             0  0.0000000343
    ##  8    39   4.5 Bronx Allerton      Private room                0  0.0000000234
    ##  9    95   5   Bronx Allerton      Entire home/apt             0  0.0000000343
    ## 10   125   4.5 Bronx Allerton      Entire home/apt             0  0.0000000234
    ## # … with 40,482 more rows
